Web Mapping With Leaflet
…
>>>>>>> 061f68aea83d51e6791b6ce6f2c4a58c479a8b4c

Reading Data from Excel

Once we create our data based on the longitude and latitude we can let R read the data.

```{r}
library(leaflet)

xl_file <- readxl::read_excel("./data/MU Location Coordinates.xlsx")
xl_file
```

# A tibble: 64 × 4
   Location                Type                 Latitude Longitude
   <chr>                   <chr>                   <dbl>     <dbl>
 1 Abbottsford Hall        Residence Hall           43.0     -87.9
 2 Campus Town East        University Apartment     43.0     -87.9
 3 Campus Town West        University Apartment     43.0     -87.9
 4 M. Carpenter Tower Hall Residence Hall           43.0     -87.9
 5 Charles Cobeen Hall     Residence Hall           43.0     -87.9
 6 Frenn Building          University Apartment     43.0     -87.9
 7 Gilman Building         University Apartment     43.0     -87.9
 8 Glenn Humphrey Hall     Residence Hall           43.0     -87.9
 9 Mashuda Hall            Residence Hall           43.0     -87.9
10 Schroeder Hall          Residence Hall           43.0     -87.9
# ℹ 54 more rows
…
